(3주차)데이터 분석을 위한 중급 R 프로그래밍 CAMP 3기
…
---

## 실습 데이터 소개

[nycflights13](https://cran.r-project.org/web/packages/nycflights13/nycflights13.pdf)는 2013년 미국의 비행기 운항기록에 관련된 airlines, airports, flights, planes, weather의 5개 데이터를 가지고 있는 데이터 패키지

```r
if (!requireNamespace("nycflights13")) install.packages("nycflights13")
library(nycflights13)
nycflights13::flights
```

```
## # A tibble: 336,776 x 19
##     year month   day dep_time sched_dep_time dep_delay arr_time
##    <int> <int> <int>    <int>          <int>     <dbl>    <int>
##  1  2013     1     1      517            515         2      830
##  2  2013     1     1      533            529         4      850
##  3  2013     1     1      542            540         2      923
##  4  2013     1     1      544            545        -1     1004
##  5  2013     1     1      554            600        -6      812
##  6  2013     1     1      554            558        -4      740
##  7  2013     1     1      555            600        -5      913
##  8  2013     1     1      557            600        -3      709
##  9  2013     1     1      557            600        -3      838
## 10  2013     1     1      558            600        -2      753
## # ... with 336,766 more rows, and 12 more variables: sched_arr_time <int>,
## #   arr_delay <dbl>, carrier <chr>, flight <int>, tailnum <chr>,
## #   origin <chr>, dest <chr>, air_time <dbl>, distance <dbl>, hour <dbl>,
## #   minute <dbl>, time_hour <dttm>
```
…
---

### 열 방향: 선택 - select()

데이터에서 컬럼을 선택하여 사용함. select()는 선언된 순서대로 컬럼을 정렬함
.pull-left[
```{}
select(flights, year, month, day)
```
]
.pull-right[

```
## # A tibble: 336,776 x 3
##     year month   day
##    <int> <int> <int>
##  1  2013     1     1
##  2  2013     1     1
##  3  2013     1     1
##  4  2013     1     1
##  5  2013     1     1
##  6  2013     1     1
##  7  2013     1     1
##  8  2013     1     1
##  9  2013     1     1
## 10  2013     1     1
## # ... with 336,766 more rows
```
]
---

### 열 방향: 선택 - select()

숫자에서만 제공하던 from:to 문법을 컬럼 순서를 기준으로 지원
.pull-left[
```{}
select(flights, year:day)
```
]
.pull-right[

```
## # A tibble: 336,776 x 3
##     year month   day
##    <int> <int> <int>
##  1  2013     1     1
##  2  2013     1     1
##  3  2013     1     1
##  4  2013     1     1
##  5  2013     1     1
##  6  2013     1     1
##  7  2013     1     1
##  8  2013     1     1
##  9  2013     1     1
## 10  2013     1     1
## # ... with 336,766 more rows
```
]
---

### 열 방향: 선택 - select()

-(마이너스)는 지정한 컬럼을 제외하고 전부라는 의미

```r
select(flights, -(year:day))
```

```
## # A tibble: 336,776 x 16
##    dep_time sched_dep_time dep_delay arr_time sched_arr_time arr_delay
##       <int>          <int>     <dbl>    <int>          <int>     <dbl>
##  1      517            515         2      830            819        11
##  2      533            529         4      850            830        20
##  3      542            540         2      923            850        33
##  4      544            545        -1     1004           1022       -18
##  5      554            600        -6      812            837       -25
##  6      554            558        -4      740            728        12
##  7      555            600        -5      913            854        19
##  8      557            600        -3      709            723       -14
##  9      557            600        -3      838            846        -8
## 10      558            600        -2      753            745         8
## # ... with 336,766 more rows, and 10 more variables: carrier <chr>,
## #   flight <int>, tailnum <chr>, origin <chr>, dest <chr>, air_time <dbl>,
## #   distance <dbl>, hour <dbl>, minute <dbl>, time_hour <dttm>
```

---

### 열 방향: 선택 - select()

everything() 같은 helper 함수를 제공 everything()은 select()내에 선언된 컬럼을 제외한 나머지 전부라는 의미. 

```r
select(flights, time_hour, air_time, everything())
```

```
## # A tibble: 336,776 x 19
##              time_hour air_time  year month   day dep_time sched_dep_time
##                 <dttm>    <dbl> <int> <int> <int>    <int>          <int>
##  1 2013-01-01 05:00:00      227  2013     1     1      517            515
##  2 2013-01-01 05:00:00      227  2013     1     1      533            529
##  3 2013-01-01 05:00:00      160  2013     1     1      542            540
##  4 2013-01-01 05:00:00      183  2013     1     1      544            545
##  5 2013-01-01 06:00:00      116  2013     1     1      554            600
##  6 2013-01-01 05:00:00      150  2013     1     1      554            558
##  7 2013-01-01 06:00:00      158  2013     1     1      555            600
##  8 2013-01-01 06:00:00       53  2013     1     1      557            600
##  9 2013-01-01 06:00:00      140  2013     1     1      557            600
## 10 2013-01-01 06:00:00      138  2013     1     1      558            600
## # ... with 336,766 more rows, and 12 more variables: dep_delay <dbl>,
## #   arr_time <int>, sched_arr_time <int>, arr_delay <dbl>, carrier <chr>,
## #   flight <int>, tailnum <chr>, origin <chr>, dest <chr>, distance <dbl>,
## #   hour <dbl>, minute <dbl>
```

---

### 열 방향: 선택 - select()

ends_with()같이 글자의 일부에 해당하는 컬럼 전부를 가져오는 helper 함수도 있음. 정규표현식의 주요 기능을 함수로 제공. ?select로 확인

```r
select(flights, year:day, ends_with("delay"), distance, air_time)
```

```
## # A tibble: 336,776 x 7
##     year month   day dep_delay arr_delay distance air_time
##    <int> <int> <int>     <dbl>     <dbl>    <dbl>    <dbl>
##  1  2013     1     1         2        11     1400      227
##  2  2013     1     1         4        20     1416      227
##  3  2013     1     1         2        33     1089      160
##  4  2013     1     1        -1       -18     1576      183
##  5  2013     1     1        -6       -25      762      116
##  6  2013     1     1        -4        12      719      150
##  7  2013     1     1        -5        19     1065      158
##  8  2013     1     1        -3       -14      229       53
##  9  2013     1     1        -3        -8      944      140
## 10  2013     1     1        -2         8      733      138
## # ... with 336,766 more rows
```

---

### 열 방향: 계산 - mutate()

출력 편의를 위해 일부 데이터만 사용

```r
flights_sml <- select(flights, year:day, ends_with("delay"), distance, air_time)
flights_sml
```

```
## # A tibble: 336,776 x 7
##     year month   day dep_delay arr_delay distance air_time
##    <int> <int> <int>     <dbl>     <dbl>    <dbl>    <dbl>
##  1  2013     1     1         2        11     1400      227
##  2  2013     1     1         4        20     1416      227
##  3  2013     1     1         2        33     1089      160
##  4  2013     1     1        -1       -18     1576      183
##  5  2013     1     1        -6       -25      762      116
##  6  2013     1     1        -4        12      719      150
##  7  2013     1     1        -5        19     1065      158
##  8  2013     1     1        -3       -14      229       53
##  9  2013     1     1        -3        -8      944      140
## 10  2013     1     1        -2         8      733      138
## # ... with 336,766 more rows
```
---

### 열 방향: 계산 - mutate()

각 컬럼간의 계산으로 새로운 열을 만들 수 있음

```r
mutate(flights_sml,
       gain = arr_delay - dep_delay,
       speed = distance / air_time * 60
)
```

```
## # A tibble: 336,776 x 9
##     year month   day dep_delay arr_delay distance air_time  gain    speed
##    <int> <int> <int>     <dbl>     <dbl>    <dbl>    <dbl> <dbl>    <dbl>
##  1  2013     1     1         2        11     1400      227     9 370.0441
##  2  2013     1     1         4        20     1416      227    16 374.2731
##  3  2013     1     1         2        33     1089      160    31 408.3750
##  4  2013     1     1        -1       -18     1576      183   -17 516.7213
##  5  2013     1     1        -6       -25      762      116   -19 394.1379
##  6  2013     1     1        -4        12      719      150    16 287.6000
##  7  2013     1     1        -5        19     1065      158    24 404.4304
##  8  2013     1     1        -3       -14      229       53   -11 259.2453
##  9  2013     1     1        -3        -8      944      140    -5 404.5714
## 10  2013     1     1        -2         8      733      138    10 318.6957
## # ... with 336,766 more rows
```
---

### 열 방향: 계산 - mutate()

컬럼을 지우거나 기존의 컬럼을 변경하는 것도 가능

```r
mutate(flights_sml,
       arr_delay = NULL,
       air_time = air_time / 60
)
```

```
## # A tibble: 336,776 x 6
##     year month   day dep_delay distance  air_time
##    <int> <int> <int>     <dbl>    <dbl>     <dbl>
##  1  2013     1     1         2     1400 3.7833333
##  2  2013     1     1         4     1416 3.7833333
##  3  2013     1     1         2     1089 2.6666667
##  4  2013     1     1        -1     1576 3.0500000
##  5  2013     1     1        -6      762 1.9333333
##  6  2013     1     1        -4      719 2.5000000
##  7  2013     1     1        -5     1065 2.6333333
##  8  2013     1     1        -3      229 0.8833333
##  9  2013     1     1        -3      944 2.3333333
## 10  2013     1     1        -2      733 2.3000000
## # ... with 336,766 more rows
```
…
### 열 방향: 계산 - mutate()

transmute()는 계산한 컬럼만 있는 테이블을 생성

```r
transmute(flights,
          gain = arr_delay - dep_delay,
          hours = air_time / 60,
          gain_per_hour = gain / hours
)
```

```
## # A tibble: 336,776 x 3
##     gain     hours gain_per_hour
##    <dbl>     <dbl>         <dbl>
##  1     9 3.7833333      2.378855
##  2    16 3.7833333      4.229075
##  3    31 2.6666667     11.625000
##  4   -17 3.0500000     -5.573770
##  5   -19 1.9333333     -9.827586
##  6    16 2.5000000      6.400000
##  7    24 2.6333333      9.113924
##  8   -11 0.8833333    -12.452830
##  9    -5 2.3333333     -2.142857
## 10    10 2.3000000      4.347826
## # ... with 336,766 more rows
```

---

### 열 방향: 계산 - mutate()

group_by()와 함께 [window function](http://dplyr.tidyverse.org/articles/window-functions.html) 들이 유용하게 사용됨

```r
flights_smlg <- group_by(flights_sml, month)
mutate(flights_smlg, rank = row_number(desc(arr_delay)))
```

```
## # A tibble: 336,776 x 8
## # Groups:   month [12]
##     year month   day dep_delay arr_delay distance air_time  rank
##    <int> <int> <int>     <dbl>     <dbl>    <dbl>    <dbl> <int>
##  1  2013     1     1         2        11     1400      227  6970
##  2  2013     1     1         4        20     1416      227  5064
##  3  2013     1     1         2        33     1089      160  3458
##  4  2013     1     1        -1       -18     1576      183 21131
##  5  2013     1     1        -6       -25      762      116 23925
##  6  2013     1     1        -4        12      719      150  6699
##  7  2013     1     1        -5        19     1065      158  5226
##  8  2013     1     1        -3       -14      229       53 19019
##  9  2013     1     1        -3        -8      944      140 15534
## 10  2013     1     1        -2         8      733      138  7912
## # ... with 336,766 more rows
```

---

### 행 방향: 조건 - filter()

filter()는 데이터 중에 조건에 해당하는 일부 데이터만 필터해서 사용. 논리 연산자와 결합하여 많이 사용하며 [이곳](https://mrchypark.github.io/r/operator/%EB%85%BC%EB%A6%AC-%EC%97%B0%EC%82%B0%EC%9E%90-%EC%A0%95%EB%A6%AC.html)에서 추가적으로 내용을 확인할 수 있음

```r
filter(flights, month == 1)
```

```
## # A tibble: 27,004 x 19
##     year month   day dep_time sched_dep_time dep_delay arr_time
##    <int> <int> <int>    <int>          <int>     <dbl>    <int>
##  1  2013     1     1      517            515         2      830
##  2  2013     1     1      533            529         4      850
##  3  2013     1     1      542            540         2      923
##  4  2013     1     1      544            545        -1     1004
##  5  2013     1     1      554            600        -6      812
##  6  2013     1     1      554            558        -4      740
##  7  2013     1     1      555            600        -5      913
##  8  2013     1     1      557            600        -3      709
##  9  2013     1     1      557            600        -3      838
## 10  2013     1     1      558            600        -2      753
## # ... with 26,994 more rows, and 12 more variables: sched_arr_time <int>,
## #   arr_delay <dbl>, carrier <chr>, flight <int>, tailnum <chr>,
## #   origin <chr>, dest <chr>, air_time <dbl>, distance <dbl>, hour <dbl>,
## #   minute <dbl>, time_hour <dttm>
```

---

### 행 방향: 조건 - filter()

& 는 **and** 라는 뜻이며 조건을 추가할 때 사용

```r
filter(flights, month == 1 & day == 1)
```

```
## # A tibble: 842 x 19
##     year month   day dep_time sched_dep_time dep_delay arr_time
##    <int> <int> <int>    <int>          <int>     <dbl>    <int>
##  1  2013     1     1      517            515         2      830
##  2  2013     1     1      533            529         4      850
##  3  2013     1     1      542            540         2      923
##  4  2013     1     1      544            545        -1     1004
##  5  2013     1     1      554            600        -6      812
##  6  2013     1     1      554            558        -4      740
##  7  2013     1     1      555            600        -5      913
##  8  2013     1     1      557            600        -3      709
##  9  2013     1     1      557            600        -3      838
## 10  2013     1     1      558            600        -2      753
## # ... with 832 more rows, and 12 more variables: sched_arr_time <int>,
## #   arr_delay <dbl>, carrier <chr>, flight <int>, tailnum <chr>,
## #   origin <chr>, dest <chr>, air_time <dbl>, distance <dbl>, hour <dbl>,
## #   minute <dbl>, time_hour <dttm>
```

---

### 행 방향: 조건 - filter()

| 는 **or** 라는 뜻

```r
filter(flights, month == 11 | month == 12)
```

```
## # A tibble: 55,403 x 19
##     year month   day dep_time sched_dep_time dep_delay arr_time
##    <int> <int> <int>    <int>          <int>     <dbl>    <int>
##  1  2013    11     1        5           2359         6      352
##  2  2013    11     1       35           2250       105      123
##  3  2013    11     1      455            500        -5      641
##  4  2013    11     1      539            545        -6      856
##  5  2013    11     1      542            545        -3      831
##  6  2013    11     1      549            600       -11      912
##  7  2013    11     1      550            600       -10      705
##  8  2013    11     1      554            600        -6      659
##  9  2013    11     1      554            600        -6      826
## 10  2013    11     1      554            600        -6      749
## # ... with 55,393 more rows, and 12 more variables: sched_arr_time <int>,
## #   arr_delay <dbl>, carrier <chr>, flight <int>, tailnum <chr>,
## #   origin <chr>, dest <chr>, air_time <dbl>, distance <dbl>, hour <dbl>,
## #   minute <dbl>, time_hour <dttm>
```

---

### 행 방향: 조건 - filter()

**%in%**는 유용하게 사용하는 논리 연산자로 왼쪽에 있는 벡터가 오른쪽 벡터의 데이터 중 어느 하나라도 맞으면 출력

```r
filter(flights, month %in% c(11, 12))
```

```
## # A tibble: 55,403 x 19
##     year month   day dep_time sched_dep_time dep_delay arr_time
##    <int> <int> <int>    <int>          <int>     <dbl>    <int>
##  1  2013    11     1        5           2359         6      352
##  2  2013    11     1       35           2250       105      123
##  3  2013    11     1      455            500        -5      641
##  4  2013    11     1      539            545        -6      856
##  5  2013    11     1      542            545        -3      831
##  6  2013    11     1      549            600       -11      912
##  7  2013    11     1      550            600       -10      705
##  8  2013    11     1      554            600        -6      659
##  9  2013    11     1      554            600        -6      826
## 10  2013    11     1      554            600        -6      749
## # ... with 55,393 more rows, and 12 more variables: sched_arr_time <int>,
## #   arr_delay <dbl>, carrier <chr>, flight <int>, tailnum <chr>,
## #   origin <chr>, dest <chr>, air_time <dbl>, distance <dbl>, hour <dbl>,
## #   minute <dbl>, time_hour <dttm>
```

---

### 행 방향: 조건 - filter()

! 는 local 데이터에서 결과를 반대로 뒤집는 역할을 하며 수학에서의 괄호와 같이 연산의 범위를 작성해 두는 것이 문제 발생 소지가 적어점

```r
filter(flights, !(arr_delay > 120 | dep_delay > 120))
```

```
## # A tibble: 316,050 x 19
##     year month   day dep_time sched_dep_time dep_delay arr_time
##    <int> <int> <int>    <int>          <int>     <dbl>    <int>
##  1  2013     1     1      517            515         2      830
##  2  2013     1     1      533            529         4      850
##  3  2013     1     1      542            540         2      923
##  4  2013     1     1      544            545        -1     1004
##  5  2013     1     1      554            600        -6      812
##  6  2013     1     1      554            558        -4      740
##  7  2013     1     1      555            600        -5      913
##  8  2013     1     1      557            600        -3      709
##  9  2013     1     1      557            600        -3      838
## 10  2013     1     1      558            600        -2      753
## # ... with 316,040 more rows, and 12 more variables: sched_arr_time <int>,
## #   arr_delay <dbl>, carrier <chr>, flight <int>, tailnum <chr>,
## #   origin <chr>, dest <chr>, air_time <dbl>, distance <dbl>, hour <dbl>,
## #   minute <dbl>, time_hour <dttm>
```
…
---

### 행 방향: 추가 - bind_rows()

bind_rows()는 컬럼 이름을 기준으로 같은 컬럼 밑에 데이터를 붙여서 **묶어줌**. 

```r
bind_rows(feb, dec)
```

```
## # A tibble: 53,086 x 19
##     year month   day dep_time sched_dep_time dep_delay arr_time
##    <int> <int> <int>    <int>          <int>     <dbl>    <int>
##  1  2013     2     1      456            500        -4      652
##  2  2013     2     1      520            525        -5      816
##  3  2013     2     1      527            530        -3      837
##  4  2013     2     1      532            540        -8     1007
##  5  2013     2     1      540            540         0      859
##  6  2013     2     1      552            600        -8      714
##  7  2013     2     1      552            600        -8      919
##  8  2013     2     1      552            600        -8      655
##  9  2013     2     1      553            600        -7      833
## 10  2013     2     1      553            600        -7      821
## # ... with 53,076 more rows, and 12 more variables: sched_arr_time <int>,
## #   arr_delay <dbl>, carrier <chr>, flight <int>, tailnum <chr>,
## #   origin <chr>, dest <chr>, air_time <dbl>, distance <dbl>, hour <dbl>,
## #   minute <dbl>, time_hour <dttm>
```

---

### 행 방향: 추가 - bind_rows()

list()로 구분된 데이터도 **묶어줌**.

```r
bind_rows(list(feb, dec))
```

```
## # A tibble: 53,086 x 19
##     year month   day dep_time sched_dep_time dep_delay arr_time
##    <int> <int> <int>    <int>          <int>     <dbl>    <int>
##  1  2013     2     1      456            500        -4      652
##  2  2013     2     1      520            525        -5      816
##  3  2013     2     1      527            530        -3      837
##  4  2013     2     1      532            540        -8     1007
##  5  2013     2     1      540            540         0      859
##  6  2013     2     1      552            600        -8      714
##  7  2013     2     1      552            600        -8      919
##  8  2013     2     1      552            600        -8      655
##  9  2013     2     1      553            600        -7      833
## 10  2013     2     1      553            600        -7      821
## # ... with 53,076 more rows, and 12 more variables: sched_arr_time <int>,
## #   arr_delay <dbl>, carrier <chr>, flight <int>, tailnum <chr>,
## #   origin <chr>, dest <chr>, air_time <dbl>, distance <dbl>, hour <dbl>,
## #   minute <dbl>, time_hour <dttm>
```
…
